{
  "__type__": "cc.AnimationClip",
  "_name": "monigotein",
  "_objFlags": 0,
  "_rawFiles": null,
  "_duration": 0.9,
  "sample": 30,
  "speed": 1,
  "wrapMode": 1,
  "curveData": {
    "props": {
      "x": [
        {
          "frame": 0,
          "value": -373
        },
        {
          "frame": 0.8333333333333334,
          "value": 134
        },
        {
          "frame": 0.9,
          "value": 134
        }
      ],
      "opacity": [
        {
          "frame": 0,
          "value": 0
        },
        {
          "frame": 0.9,
          "value": 255
        }
      ]
    }
  },
  "events": []
}